…
    ## 
    ##        Parameter  Est.     SE %RSE Back-transformed(95%CI) BSV(CV%) Shrink(SD)%
    ## tka           Ka  0.46  0.196 42.7       1.58 (1.08, 2.33)     71.9    -0.291% 
    ## tcl           Cl  1.01 0.0839 8.29       2.75 (2.34, 3.25)     27.0      3.42% 
    ## tv             V  3.45 0.0469 1.36       31.6 (28.8, 34.7)     14.0      10.7% 
    ## add.sd           0.694                               0.694                     
    ##  
    ##   Covariance Type ($covMethod): linFim
    ##   No correlations in between subject variability (BSV) matrix
    ##   Full BSV covariance ($omega) or correlation ($omegaR; diagonals=SDs) 
    ##   Distribution stats (mean/skewness/kurtosis/p-value) available in $shrink 
    ##   Censoring ($censInformation): No censoring
    ## 
    ## ── Fit Data (object is a modified tibble): ──
    ## # A tibble: 132 × 19
    ##   ID     TIME    DV  PRED    RES IPRED   IRES  IWRES eta.ka eta.cl   eta.v    cp
    ##   <fct> <dbl> <dbl> <dbl>  <dbl> <dbl>  <dbl>  <dbl>  <dbl>  <dbl>   <dbl> <dbl>
    ## 1 1      0     0.74  0     0.74   0     0.74   1.07  0.0988 -0.484 -0.0843  0   
    ## 2 1      0.25  2.84  3.27 -0.433  3.87 -1.03  -1.49  0.0988 -0.484 -0.0843  3.87
    ## 3 1      0.57  6.57  5.85  0.718  6.82 -0.247 -0.356 0.0988 -0.484 -0.0843  6.82
    ## # ℹ 129 more rows
    ## # ℹ 7 more variables: depot <dbl>, center <dbl>, ka <dbl>, cl <dbl>, v <dbl>,
    ## #   tad <dbl>, dosenum <dbl>
…
