…
    ## tv          41.0      1.09% 
    ## add.err                     
    ##  
    ##   Covariance Type ($covMethod): linFim
    ##   Correlations in between subject variability (BSV) matrix:
    ##     cor:eta.v,eta.cl 
    ##           0.989  
    ##  
    ## 
    ##   Full BSV covariance ($omega) or correlation ($omegaR; diagonals=SDs) 
    ##   Distribution stats (mean/skewness/kurtosis/p-value) available in $shrink 
    ##   Censoring ($censInformation): No censoring
    ## 
    ## ── Fit Data (object is a modified tibble): ──
    ## # A tibble: 155 × 26
    ##   ID     TIME    DV EPRED  ERES   NPDE     NPD   PDE    PD  PRED    RES    WRES
    ##   <fct> <dbl> <dbl> <dbl> <dbl>  <dbl>   <dbl> <dbl> <dbl> <dbl>  <dbl>   <dbl>
    ## 1 1        2   17.3  18.8 -1.53 -0.422  0.0167 0.337 0.507  17.5 -0.222 -0.0297
    ## 2 1      112.  31    29.9  1.15  0.394  0.394  0.653 0.653  27.9  3.11   0.254 
    ## 3 2        2    9.7  10.9 -1.18 -0.994 -0.193  0.16  0.423  10.5 -0.813 -0.162 
    ## # ℹ 152 more rows
    ## # ℹ 14 more variables: IPRED <dbl>, IRES <dbl>, IWRES <dbl>, CPRED <dbl>,
    ## #   CRES <dbl>, CWRES <dbl>, eta.cl <dbl>, eta.v <dbl>, A1 <dbl>, cl <dbl>,
    ## #   v <dbl>, ke <dbl>, tad <dbl>, dosenum <dbl>
…
    ## wt.cl                       
    ## add.err                     
    ##  
    ##   Covariance Type ($covMethod): linFim
    ##   Correlations in between subject variability (BSV) matrix:
    ##     cor:eta.v,eta.cl 
    ##           0.171  
    ##  
    ## 
    ##   Full BSV covariance ($omega) or correlation ($omegaR; diagonals=SDs) 
    ##   Distribution stats (mean/skewness/kurtosis/p-value) available in $shrink 
    ##   Censoring ($censInformation): No censoring
    ## 
    ## ── Fit Data (object is a modified tibble): ──
    ## # A tibble: 155 × 27
    ##   ID     TIME    DV EPRED  ERES   NPDE    NPD    PDE    PD  PRED    RES    WRES
    ##   <fct> <dbl> <dbl> <dbl> <dbl>  <dbl>  <dbl>  <dbl> <dbl> <dbl>  <dbl>   <dbl>
    ## 1 1        2   17.3  19.2 -1.90 -0.830 -0.117 0.203  0.453  17.5 -0.225 -0.0300
    ## 2 1      112.  31    28.7  2.32  0.403  0.403 0.657  0.657  28.3  2.74   0.326 
    ## 3 2        2    9.7  11.3 -1.56 -1.61  -0.176 0.0533 0.43   10.5 -0.806 -0.159 
    ## # ℹ 152 more rows
    ## # ℹ 15 more variables: IPRED <dbl>, IRES <dbl>, IWRES <dbl>, CPRED <dbl>,
    ## #   CRES <dbl>, CWRES <dbl>, eta.cl <dbl>, eta.v <dbl>, A1 <dbl>, cl <dbl>,
    ## #   v <dbl>, ke <dbl>, tad <dbl>, dosenum <dbl>, NWE <dbl>
…
